000     salida
000     apagado
004-005 @READ_PROGRAM_MEMORY8.P1
004     @WRITE_PROGRAM_MEMORY8.P2
005     port_a
006     port_b
015     CCP_1
015     CCP_1_LOW
016     CCP_1_HIGH
01B     CCP_2
01B     CCP_2_LOW
01C     CCP_2_HIGH
020     @TRIS_C
021-022 t1
023-024 dataIn
025     main.@SCRATCH1
026     @delay_ms1.P1
026     main.@SCRATCH2
027     main.@SCRATCH3
028     @delay_us1.P1
077     @SCRATCH
078     @SCRATCH
078     _RETURN_
079     @SCRATCH
07A     @SCRATCH
09C.6   C1OUT
09C.7   C2OUT
0FF     entrada
10D-10E @READ_PROGRAM_MEMORY8.P1
10D-10E @WRITE_PROGRAM_MEMORY8.P2

ROM Allocation:
0004  @delay_ms1
0019  @delay_us1
002D  main
002D  @cinit


User Memory space: 

User Memory space: 

Project Directory:
    Z:\home\johnny\proyectos\control de victor\PIC\

Project Files:
    prueba5.c
    C:\Program Files\PICC\devices\16f876a.h

Units:
    Z:\home\johnny\proyectos\control de victor\PIC\prueba5 (main)

Compiler Settings:
    Processor:      PIC16F876A
    Pointer Size:   16
    ADC Range:      0-255
    Opt Level:      9
    Short,Int,Long: UNSIGNED: 1,8,16
    Float,Double:   32,32

Output Files:
    Errors:      prueba5.err
    Ext Symbols: prueba5.esym
    INHX8:       prueba5.hex
    Symbols:     prueba5.sym
    List/Opcode: prueba5.lst
    Debug/COFF:  prueba5.cof
