:1000000000308A0019280000213084008313000882
:10001000031918280130F800F701F70B0D28F80B29
:100020000C284A30F700F70B13281628800B0A28F3
:100030002D28840183131F30830507309F00003073
:10004000660083168610831286108316861002308F
:0E00500083128606FA30A100042825286300DA
:02400E00613F10
:00000001FF
;PIC16F628A
;CRC=556A  CREATED="20-Ago-14 23:20"
