EESchema Schematic File Version 2
LIBS:power
LIBS:device
LIBS:transistors
LIBS:conn
LIBS:linear
LIBS:regul
LIBS:74xx
LIBS:cmos4000
LIBS:adc-dac
LIBS:memory
LIBS:xilinx
LIBS:special
LIBS:microcontrollers
LIBS:dsp
LIBS:microchip
LIBS:analog_switches
LIBS:motorola
LIBS:texas
LIBS:intel
LIBS:audio
LIBS:interface
LIBS:digital-audio
LIBS:philips
LIBS:display
LIBS:cypress
LIBS:siliconi
LIBS:opto
LIBS:atmel
LIBS:contrib
LIBS:valves
LIBS:microcontroladores
LIBS:control-cache
EELAYER 27 0
EELAYER END
$Descr A4 11693 8268
encoding utf-8
Sheet 1 1
Title "Control de victor"
Date "11 mar 2015"
Rev "3"
Comp ""
Comment1 "Johnny Cubides"
Comment2 "Jgcubidesc@unal.edu.co"
Comment3 ""
Comment4 ""
$EndDescr
$Comp
L 16F876A U1
U 1 1 54E6835E
P 3950 4950
F 0 "U1" H 3050 6200 60  0000 C CNN
F 1 "16F876A" H 4600 3900 60  0000 C CNN
F 2 "" H 4150 5750 60  0000 C CNN
F 3 "" H 4150 5750 60  0000 C CNN
	1    3950 4950
	1    0    0    -1  
$EndComp
$Comp
L CONN_5 P1
U 1 1 54E68394
P 1500 1800
F 0 "P1" V 1450 1800 50  0000 C CNN
F 1 "CONN_5" V 1550 1800 50  0000 C CNN
F 2 "" H 1500 1800 60  0000 C CNN
F 3 "" H 1500 1800 60  0000 C CNN
	1    1500 1800
	-1   0    0    1   
$EndComp
$Comp
L GND #PWR01
U 1 1 54E683C0
P 2000 2100
F 0 "#PWR01" H 2000 2100 30  0001 C CNN
F 1 "GND" H 2000 2030 30  0001 C CNN
F 2 "" H 2000 2100 60  0000 C CNN
F 3 "" H 2000 2100 60  0000 C CNN
	1    2000 2100
	1    0    0    -1  
$EndComp
Text GLabel 2050 1900 2    60   Output ~ 0
VDD
Text GLabel 2300 1800 2    60   BiDi ~ 0
DAT
Text GLabel 2050 1700 2    60   Output ~ 0
CLK
Text GLabel 2300 1600 2    60   Output ~ 0
VPP
Text GLabel 5300 3900 2    60   BiDi ~ 0
DAT
Text GLabel 5550 4000 2    60   Input ~ 0
CLK
Text GLabel 2550 3900 0    60   Input ~ 0
VPP
$Comp
L SW_PUSH_SMALL SW1
U 1 1 54E68A2C
P 1300 4100
F 0 "SW1" H 1450 4210 30  0000 C CNN
F 1 "SW_PUSH_SMALL" H 1300 4021 30  0000 C CNN
F 2 "~" H 1300 4100 60  0000 C CNN
F 3 "~" H 1300 4100 60  0000 C CNN
	1    1300 4100
	1    0    0    -1  
$EndComp
$Comp
L R R1
U 1 1 54E68AC1
P 2300 3650
F 0 "R1" V 2380 3650 40  0000 C CNN
F 1 "10k" V 2307 3651 40  0000 C CNN
F 2 "~" V 2230 3650 30  0000 C CNN
F 3 "~" H 2300 3650 30  0000 C CNN
	1    2300 3650
	0    -1   -1   0   
$EndComp
$Comp
L GND #PWR02
U 1 1 54E68C55
P 900 3950
F 0 "#PWR02" H 900 3950 30  0001 C CNN
F 1 "GND" H 900 3880 30  0001 C CNN
F 2 "" H 900 3950 60  0000 C CNN
F 3 "" H 900 3950 60  0000 C CNN
	1    900  3950
	1    0    0    -1  
$EndComp
Text GLabel 1600 4200 2    60   Output ~ 0
VPP
$Comp
L GND #PWR03
U 1 1 54E68D7F
P 2250 4000
F 0 "#PWR03" H 2250 4000 30  0001 C CNN
F 1 "GND" H 2250 3930 30  0001 C CNN
F 2 "" H 2250 4000 60  0000 C CNN
F 3 "" H 2250 4000 60  0000 C CNN
	1    2250 4000
	0    1    1    0   
$EndComp
NoConn ~ 2700 4700
NoConn ~ 2700 4600
Text GLabel 5350 5500 2    60   Input ~ 0
SCL
Text GLabel 5650 5400 2    60   BiDi ~ 0
SDA
$Comp
L CONN_4X2 P2
U 1 1 54E69261
P 1750 4950
F 0 "P2" H 1750 5200 50  0000 C CNN
F 1 "CONN_4X2" V 1750 4950 40  0000 C CNN
F 2 "" H 1750 4950 60  0000 C CNN
F 3 "" H 1750 4950 60  0000 C CNN
	1    1750 4950
	1    0    0    -1  
$EndComp
$Comp
L R R2
U 1 1 54E69315
P 2200 5500
F 0 "R2" V 2280 5500 40  0000 C CNN
F 1 "10k" V 2207 5501 40  0000 C CNN
F 2 "~" V 2130 5500 30  0000 C CNN
F 3 "~" H 2200 5500 30  0000 C CNN
	1    2200 5500
	1    0    0    -1  
$EndComp
$Comp
L R R3
U 1 1 54E696CA
P 2350 5500
F 0 "R3" V 2430 5500 40  0000 C CNN
F 1 "10k" V 2357 5501 40  0000 C CNN
F 2 "~" V 2280 5500 30  0000 C CNN
F 3 "~" H 2350 5500 30  0000 C CNN
	1    2350 5500
	1    0    0    -1  
$EndComp
$Comp
L R R4
U 1 1 54E696D0
P 2500 5500
F 0 "R4" V 2580 5500 40  0000 C CNN
F 1 "10k" V 2507 5501 40  0000 C CNN
F 2 "~" V 2430 5500 30  0000 C CNN
F 3 "~" H 2500 5500 30  0000 C CNN
	1    2500 5500
	1    0    0    -1  
$EndComp
$Comp
L R R5
U 1 1 54E696D6
P 2650 5500
F 0 "R5" V 2730 5500 40  0000 C CNN
F 1 "10k" V 2657 5501 40  0000 C CNN
F 2 "~" V 2580 5500 30  0000 C CNN
F 3 "~" H 2650 5500 30  0000 C CNN
	1    2650 5500
	1    0    0    -1  
$EndComp
$Comp
L GND #PWR04
U 1 1 54E6971F
P 1300 5250
F 0 "#PWR04" H 1300 5250 30  0001 C CNN
F 1 "GND" H 1300 5180 30  0001 C CNN
F 2 "" H 1300 5250 60  0000 C CNN
F 3 "" H 1300 5250 60  0000 C CNN
	1    1300 5250
	1    0    0    -1  
$EndComp
Text GLabel 5350 5200 2    60   Output ~ 0
TX
Text GLabel 5550 5100 2    60   Input ~ 0
RX
NoConn ~ 5100 5700
NoConn ~ 5100 5600
NoConn ~ 5100 5300
$Comp
L GND #PWR05
U 1 1 54E698C5
P 5200 5000
F 0 "#PWR05" H 5200 5000 30  0001 C CNN
F 1 "GND" H 5200 4930 30  0001 C CNN
F 2 "" H 5200 5000 60  0000 C CNN
F 3 "" H 5200 5000 60  0000 C CNN
	1    5200 5000
	1    0    0    -1  
$EndComp
NoConn ~ 5100 4200
NoConn ~ 5100 4100
Text GLabel 5650 4300 2    60   Output ~ 0
OB2
Text GLabel 5650 4500 2    60   Output ~ 0
OB1
Text GLabel 5350 5800 2    60   Output ~ 0
RUN
Text GLabel 5200 4600 2    60   Input ~ 0
CONM1
Text GLabel 5200 4400 2    60   Input ~ 0
CONM2
$Comp
L LED D1
U 1 1 54E69BA8
P 4550 1350
F 0 "D1" H 4550 1450 50  0000 C CNN
F 1 "LED_RED" H 4550 1250 50  0000 C CNN
F 2 "~" H 4550 1350 60  0000 C CNN
F 3 "~" H 4550 1350 60  0000 C CNN
	1    4550 1350
	0    1    1    0   
$EndComp
$Comp
L LED D2
U 1 1 54E69BB5
P 4900 1350
F 0 "D2" H 4900 1450 50  0000 C CNN
F 1 "LED_GREEN" H 4900 1250 50  0000 C CNN
F 2 "~" H 4900 1350 60  0000 C CNN
F 3 "~" H 4900 1350 60  0000 C CNN
	1    4900 1350
	0    1    1    0   
$EndComp
$Comp
L LED D3
U 1 1 54E69BBB
P 5200 3050
F 0 "D3" H 5200 3150 50  0000 C CNN
F 1 "LED_YELLOW" H 5200 2950 50  0000 C CNN
F 2 "~" H 5200 3050 60  0000 C CNN
F 3 "~" H 5200 3050 60  0000 C CNN
	1    5200 3050
	0    1    1    0   
$EndComp
$Comp
L LED D4
U 1 1 54E69BC1
P 5500 1350
F 0 "D4" H 5500 1450 50  0000 C CNN
F 1 "LED_RED1" H 5500 1250 50  0000 C CNN
F 2 "~" H 5500 1350 60  0000 C CNN
F 3 "~" H 5500 1350 60  0000 C CNN
	1    5500 1350
	0    1    1    0   
$EndComp
$Comp
L R R6
U 1 1 54E69BE4
P 4550 1900
F 0 "R6" V 4630 1900 40  0000 C CNN
F 1 "200" V 4557 1901 40  0000 C CNN
F 2 "~" V 4480 1900 30  0000 C CNN
F 3 "~" H 4550 1900 30  0000 C CNN
	1    4550 1900
	1    0    0    -1  
$EndComp
$Comp
L R R7
U 1 1 54E69BF3
P 4900 1900
F 0 "R7" V 4980 1900 40  0000 C CNN
F 1 "200" V 4907 1901 40  0000 C CNN
F 2 "~" V 4830 1900 30  0000 C CNN
F 3 "~" H 4900 1900 30  0000 C CNN
	1    4900 1900
	1    0    0    -1  
$EndComp
$Comp
L R R9
U 1 1 54E69C11
P 5500 1900
F 0 "R9" V 5580 1900 40  0000 C CNN
F 1 "200" V 5507 1901 40  0000 C CNN
F 2 "~" V 5430 1900 30  0000 C CNN
F 3 "~" H 5500 1900 30  0000 C CNN
	1    5500 1900
	1    0    0    -1  
$EndComp
$Comp
L GND #PWR06
U 1 1 54E69C20
P 5500 2300
F 0 "#PWR06" H 5500 2300 30  0001 C CNN
F 1 "GND" H 5500 2230 30  0001 C CNN
F 2 "" H 5500 2300 60  0000 C CNN
F 3 "" H 5500 2300 60  0000 C CNN
	1    5500 2300
	1    0    0    -1  
$EndComp
$Comp
L R R10
U 1 1 54E69FA6
P 5800 1900
F 0 "R10" V 5880 1900 40  0000 C CNN
F 1 "200" V 5807 1901 40  0000 C CNN
F 2 "~" V 5730 1900 30  0000 C CNN
F 3 "~" H 5800 1900 30  0000 C CNN
	1    5800 1900
	1    0    0    -1  
$EndComp
$Comp
L LED D5
U 1 1 54E69FAC
P 5800 1350
F 0 "D5" H 5800 1450 50  0000 C CNN
F 1 "LED_RED2" H 5800 1250 50  0000 C CNN
F 2 "~" H 5800 1350 60  0000 C CNN
F 3 "~" H 5800 1350 60  0000 C CNN
	1    5800 1350
	0    1    1    0   
$EndComp
Text GLabel 4900 950  1    60   Input ~ 0
RUN
Text GLabel 5800 950  1    60   Input ~ 0
OB2
Text GLabel 5500 950  1    60   Input ~ 0
OB1
$Comp
L PNP Q1
U 1 1 54E6A18E
P 5300 2600
F 0 "Q1" H 5300 2450 60  0000 R CNN
F 1 "PNP_2n3906" H 5300 2750 60  0000 R CNN
F 2 "~" H 5300 2600 60  0000 C CNN
F 3 "~" H 5300 2600 60  0000 C CNN
	1    5300 2600
	-1   0    0    1   
$EndComp
$Comp
L GND #PWR07
U 1 1 54E6A204
P 4950 3350
F 0 "#PWR07" H 4950 3350 30  0001 C CNN
F 1 "GND" H 4950 3280 30  0001 C CNN
F 2 "" H 4950 3350 60  0000 C CNN
F 3 "" H 4950 3350 60  0000 C CNN
	1    4950 3350
	1    0    0    -1  
$EndComp
$Comp
L R R8
U 1 1 54E6A267
P 7150 2900
F 0 "R8" V 7230 2900 40  0000 C CNN
F 1 "500K" V 7157 2901 40  0000 C CNN
F 2 "~" V 7080 2900 30  0000 C CNN
F 3 "~" H 7150 2900 30  0000 C CNN
	1    7150 2900
	1    0    0    -1  
$EndComp
Text GLabel 7050 3300 0    60   BiDi ~ 0
SDA
$Comp
L +5V #PWR08
U 1 1 54E6A35E
P 4550 850
F 0 "#PWR08" H 4550 940 20  0001 C CNN
F 1 "+5V" H 4550 940 30  0000 C CNN
F 2 "" H 4550 850 60  0000 C CNN
F 3 "" H 4550 850 60  0000 C CNN
	1    4550 850 
	1    0    0    -1  
$EndComp
$Comp
L +5V #PWR09
U 1 1 54E6A466
P 5200 850
F 0 "#PWR09" H 5200 940 20  0001 C CNN
F 1 "+5V" H 5200 940 30  0000 C CNN
F 2 "" H 5200 850 60  0000 C CNN
F 3 "" H 5200 850 60  0000 C CNN
	1    5200 850 
	1    0    0    -1  
$EndComp
Text GLabel 1000 3650 0    60   Input ~ 0
VDD
$Comp
L CONN_2X2 P3
U 1 1 54E6A56F
P 1600 3600
F 0 "P3" H 1600 3750 50  0000 C CNN
F 1 "CONN_2X2" H 1610 3470 40  0000 C CNN
F 2 "" H 1600 3600 60  0000 C CNN
F 3 "" H 1600 3600 60  0000 C CNN
	1    1600 3600
	1    0    0    -1  
$EndComp
$Comp
L +5V #PWR010
U 1 1 54E6A6CD
P 2100 3450
F 0 "#PWR010" H 2100 3540 20  0001 C CNN
F 1 "+5V" H 2100 3540 30  0000 C CNN
F 2 "" H 2100 3450 60  0000 C CNN
F 3 "" H 2100 3450 60  0000 C CNN
	1    2100 3450
	1    0    0    -1  
$EndComp
Text GLabel 5250 4800 2    60   Input ~ 0
VDD
$Comp
L C C1
U 1 1 54E6A7DA
P 1150 6750
F 0 "C1" H 1150 6850 40  0000 L CNN
F 1 "15pF" H 1156 6665 40  0000 L CNN
F 2 "~" H 1188 6600 30  0000 C CNN
F 3 "~" H 1150 6750 60  0000 C CNN
	1    1150 6750
	1    0    0    -1  
$EndComp
$Comp
L C C2
U 1 1 54E6A7E9
P 1650 6750
F 0 "C2" H 1650 6850 40  0000 L CNN
F 1 "15pF" H 1656 6665 40  0000 L CNN
F 2 "~" H 1688 6600 30  0000 C CNN
F 3 "~" H 1650 6750 60  0000 C CNN
	1    1650 6750
	1    0    0    -1  
$EndComp
$Comp
L GND #PWR011
U 1 1 54E6A7F8
P 1300 7150
F 0 "#PWR011" H 1300 7150 30  0001 C CNN
F 1 "GND" H 1300 7080 30  0001 C CNN
F 2 "" H 1300 7150 60  0000 C CNN
F 3 "" H 1300 7150 60  0000 C CNN
	1    1300 7150
	1    0    0    -1  
$EndComp
$Comp
L CRYSTAL X1
U 1 1 54E6A8B7
P 1350 6200
F 0 "X1" H 1350 6350 60  0000 C CNN
F 1 "CRYSTAL_4/8 MHZ" H 1350 6050 60  0000 C CNN
F 2 "~" H 1350 6200 60  0000 C CNN
F 3 "~" H 1350 6200 60  0000 C CNN
	1    1350 6200
	1    0    0    -1  
$EndComp
$Comp
L CP C3
U 1 1 54E6ACEE
P 9500 4550
F 0 "C3" H 9550 4650 40  0000 L CNN
F 1 "100uF" H 9550 4450 40  0000 L CNN
F 2 "~" H 9600 4400 30  0000 C CNN
F 3 "~" H 9500 4550 300 0000 C CNN
	1    9500 4550
	0    1    1    0   
$EndComp
$Comp
L NPN Q2
U 1 1 54E6ACFD
P 9000 4850
F 0 "Q2" H 9000 4700 50  0000 R CNN
F 1 "NPN_2n2222a" H 9000 5000 50  0000 R CNN
F 2 "~" H 9000 4850 60  0000 C CNN
F 3 "~" H 9000 4850 60  0000 C CNN
	1    9000 4850
	1    0    0    -1  
$EndComp
$Comp
L R R12
U 1 1 54E6AD0C
P 8400 4850
F 0 "R12" V 8480 4850 40  0000 C CNN
F 1 "10k" V 8407 4851 40  0000 C CNN
F 2 "~" V 8330 4850 30  0000 C CNN
F 3 "~" H 8400 4850 30  0000 C CNN
	1    8400 4850
	0    -1   -1   0   
$EndComp
$Comp
L R R13
U 1 1 54E6AD2A
P 9100 4250
F 0 "R13" V 9180 4250 40  0000 C CNN
F 1 "1k" V 9107 4251 40  0000 C CNN
F 2 "~" V 9030 4250 30  0000 C CNN
F 3 "~" H 9100 4250 30  0000 C CNN
	1    9100 4250
	1    0    0    -1  
$EndComp
$Comp
L +5V #PWR012
U 1 1 54E6AEB5
P 9100 3850
F 0 "#PWR012" H 9100 3940 20  0001 C CNN
F 1 "+5V" H 9100 3940 30  0000 C CNN
F 2 "" H 9100 3850 60  0000 C CNN
F 3 "" H 9100 3850 60  0000 C CNN
	1    9100 3850
	1    0    0    -1  
$EndComp
$Comp
L GND #PWR013
U 1 1 54E6B0FA
P 9100 5150
F 0 "#PWR013" H 9100 5150 30  0001 C CNN
F 1 "GND" H 9100 5080 30  0001 C CNN
F 2 "" H 9100 5150 60  0000 C CNN
F 3 "" H 9100 5150 60  0000 C CNN
	1    9100 5150
	1    0    0    -1  
$EndComp
$Comp
L CONN_3 K1
U 1 1 54E6B281
P 10250 4650
F 0 "K1" V 10200 4650 50  0000 C CNN
F 1 "CONN_3" V 10300 4650 40  0000 C CNN
F 2 "" H 10250 4650 60  0000 C CNN
F 3 "" H 10250 4650 60  0000 C CNN
	1    10250 4650
	1    0    0    -1  
$EndComp
NoConn ~ 9900 4650
$Comp
L GND #PWR014
U 1 1 54E6B29C
P 9800 4900
F 0 "#PWR014" H 9800 4900 30  0001 C CNN
F 1 "GND" H 9800 4830 30  0001 C CNN
F 2 "" H 9800 4900 60  0000 C CNN
F 3 "" H 9800 4900 60  0000 C CNN
	1    9800 4900
	1    0    0    -1  
$EndComp
$Comp
L CP C4
U 1 1 54E6B400
P 9500 6050
F 0 "C4" H 9550 6150 40  0000 L CNN
F 1 "100uF" H 9550 5950 40  0000 L CNN
F 2 "~" H 9600 5900 30  0000 C CNN
F 3 "~" H 9500 6050 300 0000 C CNN
	1    9500 6050
	0    1    1    0   
$EndComp
$Comp
L NPN Q3
U 1 1 54E6B406
P 9000 6350
F 0 "Q3" H 9000 6200 50  0000 R CNN
F 1 "NPN_2n2222a" H 9000 6500 50  0000 R CNN
F 2 "~" H 9000 6350 60  0000 C CNN
F 3 "~" H 9000 6350 60  0000 C CNN
	1    9000 6350
	1    0    0    -1  
$EndComp
$Comp
L R R14
U 1 1 54E6B40C
P 8400 6350
F 0 "R14" V 8480 6350 40  0000 C CNN
F 1 "10k" V 8407 6351 40  0000 C CNN
F 2 "~" V 8330 6350 30  0000 C CNN
F 3 "~" H 8400 6350 30  0000 C CNN
	1    8400 6350
	0    -1   -1   0   
$EndComp
$Comp
L R R11
U 1 1 54E6B412
P 9100 5750
F 0 "R11" V 9180 5750 40  0000 C CNN
F 1 "1k" V 9107 5751 40  0000 C CNN
F 2 "~" V 9030 5750 30  0000 C CNN
F 3 "~" H 9100 5750 30  0000 C CNN
	1    9100 5750
	1    0    0    -1  
$EndComp
$Comp
L +5V #PWR015
U 1 1 54E6B418
P 9100 5350
F 0 "#PWR015" H 9100 5440 20  0001 C CNN
F 1 "+5V" H 9100 5440 30  0000 C CNN
F 2 "" H 9100 5350 60  0000 C CNN
F 3 "" H 9100 5350 60  0000 C CNN
	1    9100 5350
	1    0    0    -1  
$EndComp
$Comp
L GND #PWR016
U 1 1 54E6B423
P 9100 6650
F 0 "#PWR016" H 9100 6650 30  0001 C CNN
F 1 "GND" H 9100 6580 30  0001 C CNN
F 2 "" H 9100 6650 60  0000 C CNN
F 3 "" H 9100 6650 60  0000 C CNN
	1    9100 6650
	1    0    0    -1  
$EndComp
$Comp
L CONN_3 K2
U 1 1 54E6B42A
P 10250 6150
F 0 "K2" V 10200 6150 50  0000 C CNN
F 1 "CONN_3" V 10300 6150 40  0000 C CNN
F 2 "" H 10250 6150 60  0000 C CNN
F 3 "" H 10250 6150 60  0000 C CNN
	1    10250 6150
	1    0    0    -1  
$EndComp
NoConn ~ 9900 6150
$Comp
L GND #PWR017
U 1 1 54E6B431
P 9800 6400
F 0 "#PWR017" H 9800 6400 30  0001 C CNN
F 1 "GND" H 9800 6330 30  0001 C CNN
F 2 "" H 9800 6400 60  0000 C CNN
F 3 "" H 9800 6400 60  0000 C CNN
	1    9800 6400
	1    0    0    -1  
$EndComp
Text GLabel 8000 4850 0    60   Output ~ 0
CONM1
Text GLabel 8000 6350 0    60   Output ~ 0
CONM2
Text Notes 10500 5750 2    60   ~ 0
Salida al Victor\nAuxiliar
Text Notes 10400 4100 2    60   ~ 0
Salida al Victor\nPrincipal
Text Notes 10700 4550 2    60   ~ 0
Black
Text Notes 10700 4800 2    60   ~ 0
While
Text Notes 10700 6300 2    60   ~ 0
While
Text Notes 10700 6050 2    60   ~ 0
Black
$Comp
L +5V #PWR018
U 1 1 54E6B960
P 2000 5800
F 0 "#PWR018" H 2000 5890 20  0001 C CNN
F 1 "+5V" H 2000 5890 30  0000 C CNN
F 2 "" H 2000 5800 60  0000 C CNN
F 3 "" H 2000 5800 60  0000 C CNN
	1    2000 5800
	1    0    0    -1  
$EndComp
Text Notes 8250 4000 2    60   ~ 0
Salida hacia\netapa de\npotencia
$Comp
L GND #PWR019
U 1 1 54E6BAB2
P 9850 1550
F 0 "#PWR019" H 9850 1550 30  0001 C CNN
F 1 "GND" H 9850 1480 30  0001 C CNN
F 2 "" H 9850 1550 60  0000 C CNN
F 3 "" H 9850 1550 60  0000 C CNN
	1    9850 1550
	0    1    1    0   
$EndComp
$Comp
L +5V #PWR020
U 1 1 54E6BB58
P 9650 1450
F 0 "#PWR020" H 9650 1540 20  0001 C CNN
F 1 "+5V" H 9650 1540 30  0000 C CNN
F 2 "" H 9650 1450 60  0000 C CNN
F 3 "" H 9650 1450 60  0000 C CNN
	1    9650 1450
	0    -1   -1   0   
$EndComp
Text GLabel 9550 1350 0    60   Output ~ 0
SCL
Text GLabel 9250 1250 0    60   BiDi ~ 0
SDA
$Comp
L CONN_4 P6
U 1 1 54E6BFDA
P 10250 2700
F 0 "P6" V 10200 2700 50  0000 C CNN
F 1 "CONN_4" V 10300 2700 50  0000 C CNN
F 2 "" H 10250 2700 60  0000 C CNN
F 3 "" H 10250 2700 60  0000 C CNN
	1    10250 2700
	1    0    0    -1  
$EndComp
$Comp
L GND #PWR021
U 1 1 54E6BFE0
P 9850 2900
F 0 "#PWR021" H 9850 2900 30  0001 C CNN
F 1 "GND" H 9850 2830 30  0001 C CNN
F 2 "" H 9850 2900 60  0000 C CNN
F 3 "" H 9850 2900 60  0000 C CNN
	1    9850 2900
	1    0    0    -1  
$EndComp
$Comp
L +5V #PWR022
U 1 1 54E6BFE8
P 9800 2750
F 0 "#PWR022" H 9800 2840 20  0001 C CNN
F 1 "+5V" H 9800 2840 30  0000 C CNN
F 2 "" H 9800 2750 60  0000 C CNN
F 3 "" H 9800 2750 60  0000 C CNN
	1    9800 2750
	0    -1   -1   0   
$EndComp
Text GLabel 9800 2550 0    60   Output ~ 0
RX
Text GLabel 9500 2650 0    60   Input ~ 0
TX
Text Notes 9850 2250 2    60   ~ 0
UART y depurador
Text Notes 10400 900  2    60   ~ 0
Comunicación (I2C)\nalimentación de la fuente DC
Text Notes 2000 1150 2    60   ~ 0
Interfaz de Programacion\nICprog
Text Notes 1850 2950 2    60   ~ 0
Dip intercambio\nde estado de\ntrabajo o de\nprogramación
Text Notes 2000 5350 2    60   ~ 0
Asignación de\ndirección\nI2C manual\npor dip_sw
Text Notes 950  4100 2    60   ~ 0
Master\nClear
Text Notes 6150 900  0    60   ~ 0
Observadores:\n\nD1-> POWER\nD2-> Ejecución del programa\nD3-> Comunicación I2C\nD4-> Comunicación victor\nD5-> Comunicación victo (auxiliar)
$Comp
L PNP Q4
U 1 1 54E6C953
P 6350 2800
F 0 "Q4" H 6350 2650 60  0000 R CNN
F 1 "PNP_2n3906" H 6350 2950 60  0000 R CNN
F 2 "~" H 6350 2800 60  0000 C CNN
F 3 "~" H 6350 2800 60  0000 C CNN
	1    6350 2800
	-1   0    0    1   
$EndComp
$Comp
L GND #PWR023
U 1 1 54E6CAC3
P 6250 3200
F 0 "#PWR023" H 6250 3200 30  0001 C CNN
F 1 "GND" H 6250 3130 30  0001 C CNN
F 2 "" H 6250 3200 60  0000 C CNN
F 3 "" H 6250 3200 60  0000 C CNN
	1    6250 3200
	1    0    0    -1  
$EndComp
$Comp
L R R15
U 1 1 54E6CEAD
P 9650 1150
F 0 "R15" V 9730 1150 40  0000 C CNN
F 1 "Aux_3k" V 9657 1151 40  0000 C CNN
F 2 "~" V 9580 1150 30  0000 C CNN
F 3 "~" H 9650 1150 30  0000 C CNN
	1    9650 1150
	0    -1   -1   0   
$EndComp
Wire Notes Line
	11150 750  11150 1800
Connection ~ 9350 1250
Wire Wire Line
	9350 1150 9350 1250
Wire Wire Line
	9400 1150 9350 1150
Connection ~ 9900 1450
Wire Wire Line
	9900 1150 9900 1450
Wire Wire Line
	4950 3250 4950 3350
Wire Wire Line
	5200 3250 4950 3250
Wire Wire Line
	5200 2800 5200 2850
Wire Wire Line
	6250 3000 6250 3200
Wire Wire Line
	7150 2550 7150 2650
Wire Wire Line
	6850 2550 7150 2550
Wire Wire Line
	6850 2800 6850 2550
Wire Wire Line
	6550 2800 6850 2800
Wire Wire Line
	7150 3150 7150 3300
Wire Wire Line
	7150 3300 7050 3300
Wire Notes Line
	8100 600  8100 3450
Wire Notes Line
	4350 600  8100 600 
Wire Notes Line
	8100 3450 4350 3450
Wire Notes Line
	4350 3450 4350 600 
Wire Notes Line
	550  4250 1550 4250
Wire Notes Line
	550  3850 550  4250
Wire Notes Line
	1550 3850 550  3850
Wire Notes Line
	1550 4250 1550 3850
Wire Notes Line
	1050 5650 1050 4500
Wire Notes Line
	2100 5650 1050 5650
Wire Notes Line
	2100 4500 2100 5650
Wire Notes Line
	1050 4500 2100 4500
Wire Notes Line
	1100 3800 1100 2700
Wire Notes Line
	1950 3800 1100 3800
Wire Notes Line
	1950 2700 1950 3800
Wire Notes Line
	1100 2700 1950 2700
Wire Bus Line
	700  950  2850 950 
Wire Bus Line
	700  2300 700  950 
Wire Bus Line
	2850 2300 700  2300
Wire Bus Line
	2850 950  2850 2300
Wire Notes Line
	8950 750  11150 750 
Wire Notes Line
	8950 1800 8950 750 
Wire Notes Line
	11150 1800 8950 1800
Wire Notes Line
	10500 2050 10500 3100
Wire Notes Line
	8950 2050 10500 2050
Wire Notes Line
	8950 3100 8950 2050
Wire Notes Line
	10500 3100 8950 3100
Wire Wire Line
	9900 2550 9800 2550
Wire Wire Line
	9500 2650 9900 2650
Wire Wire Line
	9900 2750 9800 2750
Wire Wire Line
	9850 2850 9850 2900
Wire Wire Line
	9900 2850 9850 2850
Wire Wire Line
	9250 1250 9950 1250
Wire Wire Line
	9550 1350 9950 1350
Wire Wire Line
	9650 1450 9950 1450
Wire Wire Line
	9850 1550 9950 1550
Wire Notes Line
	11000 3650 11000 6800
Wire Notes Line
	7450 3650 11000 3650
Wire Notes Line
	7450 6800 7450 3650
Wire Notes Line
	11000 6800 7450 6800
Wire Wire Line
	2000 5800 2000 5850
Wire Notes Line
	9950 4400 10400 4400
Wire Notes Line
	9950 4900 9950 4400
Wire Notes Line
	10400 4900 9950 4900
Wire Notes Line
	10400 4400 10400 4900
Wire Notes Line
	9950 6400 9950 5900
Wire Notes Line
	10400 6400 9950 6400
Wire Notes Line
	10400 5900 10400 6400
Wire Notes Line
	9950 5900 10400 5900
Wire Wire Line
	8150 6350 8000 6350
Wire Wire Line
	8150 4850 8000 4850
Wire Wire Line
	9900 6050 9700 6050
Wire Wire Line
	9800 6250 9900 6250
Wire Wire Line
	9800 6250 9800 6400
Wire Wire Line
	9100 6550 9100 6650
Wire Wire Line
	8800 6350 8650 6350
Connection ~ 9100 6050
Wire Wire Line
	9300 6050 9100 6050
Wire Wire Line
	9100 6150 9100 6000
Wire Wire Line
	9100 5350 9100 5500
Wire Wire Line
	9900 4550 9700 4550
Wire Wire Line
	9800 4750 9900 4750
Wire Wire Line
	9800 4750 9800 4900
Wire Wire Line
	9100 5050 9100 5150
Wire Wire Line
	8800 4850 8650 4850
Connection ~ 9100 4550
Wire Wire Line
	9300 4550 9100 4550
Wire Wire Line
	9100 4650 9100 4500
Wire Wire Line
	9100 3850 9100 4000
Connection ~ 1800 6200
Wire Wire Line
	950  5950 1800 5950
Wire Wire Line
	950  4400 950  5950
Wire Wire Line
	2100 4400 950  4400
Wire Wire Line
	2100 4300 2100 4400
Wire Wire Line
	2100 4300 2700 4300
Connection ~ 900  6200
Wire Wire Line
	2000 4200 2700 4200
Wire Wire Line
	2000 4350 2000 4200
Wire Wire Line
	900  4350 2000 4350
Wire Wire Line
	900  6200 1050 6200
Wire Wire Line
	900  4350 900  6550
Wire Wire Line
	900  6550 1150 6550
Wire Wire Line
	1800 6200 1650 6200
Wire Wire Line
	1800 5950 1800 6550
Wire Wire Line
	1800 6550 1650 6550
Connection ~ 1300 7100
Wire Wire Line
	1300 7150 1300 7100
Wire Wire Line
	1650 7100 1650 6950
Wire Wire Line
	1150 7100 1650 7100
Wire Wire Line
	1150 6950 1150 7100
Wire Wire Line
	5250 4800 5100 4800
Wire Wire Line
	2100 3550 2100 3450
Wire Wire Line
	2000 3550 2100 3550
Connection ~ 1100 3650
Wire Wire Line
	1100 3550 1100 3650
Wire Wire Line
	1200 3550 1100 3550
Wire Wire Line
	2000 3650 2050 3650
Wire Wire Line
	1000 3650 1200 3650
Wire Wire Line
	4550 1150 4550 850 
Wire Wire Line
	5500 2600 6250 2600
Wire Wire Line
	5200 850  5200 2400
Wire Wire Line
	5500 1150 5500 950 
Wire Wire Line
	5800 1150 5800 950 
Wire Wire Line
	4900 950  4900 1150
Wire Wire Line
	5800 1650 5800 1550
Wire Wire Line
	5800 2150 5800 2250
Wire Wire Line
	5500 1650 5500 1550
Wire Wire Line
	4900 1650 4900 1550
Wire Wire Line
	4550 1550 4550 1650
Connection ~ 4900 2250
Wire Wire Line
	4550 2250 4550 2150
Wire Wire Line
	4900 2150 4900 2250
Connection ~ 5500 2250
Wire Wire Line
	5800 2250 4550 2250
Wire Wire Line
	5500 2150 5500 2300
Wire Wire Line
	5100 4300 5650 4300
Wire Wire Line
	5100 4400 5200 4400
Wire Wire Line
	5100 4500 5650 4500
Wire Wire Line
	5100 4600 5200 4600
Wire Wire Line
	5350 5800 5100 5800
Wire Wire Line
	5200 4900 5200 5000
Wire Wire Line
	5100 4900 5200 4900
Wire Wire Line
	5550 5100 5100 5100
Wire Wire Line
	5350 5200 5100 5200
Connection ~ 1300 4900
Wire Wire Line
	1350 4800 1300 4800
Connection ~ 1300 5000
Wire Wire Line
	1350 4900 1300 4900
Connection ~ 1300 5100
Wire Wire Line
	1350 5000 1300 5000
Wire Wire Line
	1300 5100 1350 5100
Wire Wire Line
	1300 4800 1300 5250
Connection ~ 2200 5850
Wire Wire Line
	2200 5750 2200 5850
Connection ~ 2350 5850
Wire Wire Line
	2350 5750 2350 5850
Connection ~ 2500 5850
Wire Wire Line
	2500 5750 2500 5850
Wire Wire Line
	2650 5850 2650 5750
Wire Wire Line
	2000 5850 2650 5850
Connection ~ 2200 4800
Wire Wire Line
	2200 5250 2200 4800
Connection ~ 2350 4900
Wire Wire Line
	2350 5250 2350 4900
Connection ~ 2500 5000
Wire Wire Line
	2500 5250 2500 5000
Connection ~ 2650 5100
Wire Wire Line
	2650 5250 2650 5100
Wire Wire Line
	2150 4800 2700 4800
Wire Wire Line
	2150 4900 2700 4900
Wire Wire Line
	2150 5000 2700 5000
Wire Wire Line
	2150 5100 2700 5100
Wire Wire Line
	5650 5400 5100 5400
Wire Wire Line
	5350 5500 5100 5500
Wire Wire Line
	2700 4000 2250 4000
Wire Wire Line
	1400 4200 1600 4200
Wire Wire Line
	900  3900 900  3950
Wire Wire Line
	1200 3900 900  3900
Wire Wire Line
	1200 4000 1200 3900
Connection ~ 2650 3900
Wire Wire Line
	2650 3650 2650 3900
Wire Wire Line
	2550 3650 2650 3650
Wire Wire Line
	2700 3900 2550 3900
Wire Wire Line
	5550 4000 5100 4000
Wire Wire Line
	5300 3900 5100 3900
Wire Wire Line
	1900 1600 2300 1600
Wire Wire Line
	1900 1700 2050 1700
Wire Wire Line
	1900 1800 2300 1800
Wire Wire Line
	1900 1900 2050 1900
Wire Wire Line
	2000 2000 1900 2000
Wire Wire Line
	2000 2100 2000 2000
Wire Wire Line
	9850 1100 10950 1100
Wire Wire Line
	9850 1100 9850 1250
Connection ~ 9850 1250
Wire Wire Line
	9800 1050 11000 1050
Wire Wire Line
	9800 1050 9800 1350
Connection ~ 9800 1350
Wire Wire Line
	9900 1650 10950 1650
Wire Wire Line
	9900 1650 9900 1550
Connection ~ 9900 1550
Wire Wire Line
	9750 1700 11000 1700
Wire Wire Line
	9750 1700 9750 1450
Connection ~ 9750 1450
$Comp
L CONN_4 P4
U 1 1 54FFB15A
P 10300 1400
F 0 "P4" V 10250 1400 50  0000 C CNN
F 1 "CONN_4" V 10350 1400 50  0000 C CNN
F 2 "" H 10300 1400 60  0000 C CNN
F 3 "" H 10300 1400 60  0000 C CNN
	1    10300 1400
	1    0    0    -1  
$EndComp
$Comp
L CONN_4 P5
U 1 1 54FFB1B7
P 10550 1400
F 0 "P5" V 10500 1400 50  0000 C CNN
F 1 "CONN_4" V 10600 1400 50  0000 C CNN
F 2 "" H 10550 1400 60  0000 C CNN
F 3 "" H 10550 1400 60  0000 C CNN
	1    10550 1400
	-1   0    0    1   
$EndComp
Wire Wire Line
	10950 1100 10950 1250
Wire Wire Line
	10950 1250 10900 1250
Wire Wire Line
	11000 1050 11000 1350
Wire Wire Line
	11000 1350 10900 1350
Wire Wire Line
	10950 1650 10950 1550
Wire Wire Line
	10950 1550 10900 1550
Wire Wire Line
	11000 1700 11000 1450
Wire Wire Line
	11000 1450 10900 1450
$EndSCHEMATC
