v 20110115 2
C 40000 40000 0 0 0 title-B.sym
C 47100 45000 1 0 0 2N2222-1.sym
{
T 48000 45700 5 10 0 0 0 0 1
device=2N2222
T 48000 45500 5 10 1 1 0 0 1
refdes=Q1
}
C 48000 47900 1 180 0 vdc-1.sym
{
T 47300 47250 5 10 1 1 180 0 1
refdes=V1
T 47300 47050 5 10 0 0 180 0 1
device=VOLTAGE_SOURCE
T 47300 46850 5 10 0 0 180 0 1
footprint=none
T 47300 47450 5 10 1 1 180 0 1
value=DC 5V
}
C 47800 48600 1 180 0 gnd-1.sym
N 47700 48300 47700 47900 4
N 47700 46700 47700 46000 4
C 47600 44300 1 0 0 gnd-1.sym
N 47700 44600 47700 45000 4
C 45600 45400 1 0 0 resistor-1.sym
{
T 46000 45100 5 10 1 1 0 0 1
device=1k
T 45800 45700 5 10 1 1 0 0 1
refdes=R1
}
C 49400 45900 1 270 0 resistor-1.sym
{
T 49100 45600 5 10 1 1 270 0 1
value=100
T 49700 45700 5 10 1 1 270 0 1
refdes=R2
}
C 49400 44400 1 0 0 gnd-1.sym
N 49500 44700 49500 45000 4
N 49500 45900 49500 46300 4
N 49500 46300 47700 46300 4
N 47100 45500 46500 45500 4
C 43600 43900 1 0 0 vpulse-1.sym
{
T 44300 44550 5 10 1 1 0 0 1
refdes=V2
T 44300 44750 5 10 0 0 0 0 1
device=vpulse
T 44300 44950 5 10 0 0 0 0 1
footprint=none
T 44300 44350 5 10 1 1 0 0 1
value=pulse 0 1 10n 10n 100n 1u 2u
}
N 43900 45100 43900 45500 4
N 43900 45500 45600 45500 4
C 43800 43400 1 0 0 gnd-1.sym
N 43900 43900 43900 43700 4
