\relax 
\catcode`"\active
\catcode`<\active
\catcode`>\active
\@nameuse{es@quoting}
\select@language{spanish}
\@writefile{toc}{\select@language{spanish}}
\@writefile{lof}{\select@language{spanish}}
\@writefile{lot}{\select@language{spanish}}
\@writefile{toc}{\contentsline {section}{\numberline {1}Aspectos b\'asicos de \textlatin  {\LaTeX  }}{2}}
\@writefile{toc}{\contentsline {subsection}{\numberline {1.1}Esquema de funcionamiento}{2}}
\@writefile{toc}{\contentsline {subsubsection}{\numberline {1.1.1}Instalaci\'on de programas}{2}}
\@writefile{toc}{\contentsline {subsection}{\numberline {1.2}Fichero fuente}{2}}
\@writefile{toc}{\contentsline {subsubsection}{\numberline {1.2.1}Pre\'ambulo}{2}}
\@writefile{toc}{\contentsline {subsubsection}{\numberline {1.2.2}Cuerpo}{2}}
\@writefile{toc}{\contentsline {section}{\numberline {2}Composici\'on de un documento}{2}}
\@writefile{toc}{\contentsline {section}{\numberline {3}Tipos y colores}{2}}
\@writefile{toc}{\contentsline {subsection}{\numberline {3.1}Unos tipos}{2}}
\@writefile{toc}{\contentsline {subsection}{\numberline {3.2}Otros tipos}{2}}
\@writefile{toc}{\contentsline {subsection}{\numberline {3.3}Unos colores}{2}}
\@writefile{toc}{\contentsline {subsection}{\numberline {3.4}Otros colores}{2}}
\@writefile{toc}{\contentsline {section}{\numberline {4}Ahora vuelvo a numerar}{2}}
\@writefile{toc}{\contentsline {section}{\numberline {5}Fin de la parte principal}{2}}
\@writefile{toc}{\contentsline {section}{\numberline {A}Primera parte del ap\'endice}{2}}
\@writefile{toc}{\contentsline {section}{\numberline {B}Segunda parte del ap\'endice}{2}}
\@writefile{toc}{\contentsline {section}{\numberline {C}\'Ultima parte del ap\'endice}{2}}
