EESchema Schematic File Version 2  date mié 27 ago 2014 20:27:54 COT
LIBS:Dispositivos
LIBS:Microcontroladores
LIBS:Mis integrados
LIBS:power
LIBS:device
LIBS:transistors
LIBS:conn
LIBS:linear
LIBS:regul
LIBS:74xx
LIBS:cmos4000
LIBS:adc-dac
LIBS:memory
LIBS:xilinx
LIBS:special
LIBS:microcontrollers
LIBS:dsp
LIBS:microchip
LIBS:analog_switches
LIBS:motorola
LIBS:texas
LIBS:intel
LIBS:audio
LIBS:interface
LIBS:digital-audio
LIBS:philips
LIBS:display
LIBS:cypress
LIBS:siliconi
LIBS:opto
LIBS:atmel
LIBS:contrib
LIBS:valves
LIBS:controlVictor-cache
EELAYER 25  0
EELAYER END
$Descr A4 11700 8267
encoding utf-8
Sheet 1 1
Title "Control Victor 888"
Date "28 aug 2014"
Rev "1"
Comp "Johnny German Cubides Castro"
Comment1 ""
Comment2 ""
Comment3 ""
Comment4 ""
$EndDescr
Wire Wire Line
	9800 1600 10000 1600
Wire Wire Line
	10000 1600 10000 1500
Wire Wire Line
	10500 850  10600 850 
Wire Wire Line
	10600 850  10600 700 
Wire Wire Line
	7550 5000 7450 5000
Wire Wire Line
	7450 5000 7450 4900
Wire Wire Line
	6150 6000 6500 6000
Wire Wire Line
	6500 6000 6500 5100
Wire Wire Line
	6500 5100 7550 5100
Connection ~ 5200 5650
Wire Wire Line
	4950 5650 5200 5650
Wire Wire Line
	5200 6200 5200 6400
Wire Wire Line
	5200 5050 5200 4900
Connection ~ 8650 6900
Wire Wire Line
	8650 6900 8400 6900
Wire Wire Line
	8400 6900 8400 6800
Wire Wire Line
	8500 4250 8550 4250
Wire Wire Line
	8550 4250 8550 4000
Wire Wire Line
	9800 3950 9800 4100
Wire Wire Line
	9800 1800 10700 1800
Wire Wire Line
	10700 1800 10700 6250
Wire Wire Line
	10700 6250 9550 6250
Wire Wire Line
	10500 5000 10600 5000
Wire Wire Line
	10600 5000 10600 5800
Wire Wire Line
	10600 5800 10450 5800
Connection ~ 9950 5000
Wire Wire Line
	10100 5000 9650 5000
Wire Wire Line
	9950 5000 9950 5100
Wire Wire Line
	9650 5000 9650 5700
Wire Wire Line
	9650 5700 9550 5700
Wire Wire Line
	5450 3350 10200 3350
Wire Wire Line
	10200 3350 10200 1900
Wire Wire Line
	10200 1900 9800 1900
Wire Wire Line
	5700 2450 5650 2450
Wire Wire Line
	5650 2450 5650 2550
Wire Wire Line
	5650 2550 5450 2550
Connection ~ 7250 2250
Wire Wire Line
	7250 2250 7250 2450
Wire Wire Line
	7250 2450 7150 2450
Wire Wire Line
	7450 2250 7050 2250
Wire Wire Line
	6400 1100 6200 1100
Connection ~ 6900 1900
Wire Wire Line
	7450 1900 6850 1900
Wire Wire Line
	6900 1200 6900 1100
Wire Wire Line
	7250 1600 7250 1100
Wire Wire Line
	7250 1600 7450 1600
Wire Wire Line
	7300 1150 7300 1400
Wire Wire Line
	7300 1400 7450 1400
Wire Wire Line
	1150 1800 950  1800
Wire Wire Line
	950  1800 950  1750
Wire Wire Line
	1550 4600 1550 4400
Wire Wire Line
	7350 2850 7350 2700
Wire Wire Line
	7350 2700 7450 2700
Wire Wire Line
	6900 1900 6900 1800
Wire Wire Line
	7250 1100 6800 1100
Connection ~ 6900 1100
Wire Wire Line
	6450 1900 6350 1900
Wire Wire Line
	6350 1900 6350 1100
Connection ~ 6350 1100
Wire Wire Line
	6550 2250 6400 2250
Wire Wire Line
	6400 2250 6400 2150
Wire Wire Line
	5700 2650 5450 2650
Wire Wire Line
	5450 3250 10100 3250
Wire Wire Line
	10100 3250 10100 2000
Wire Wire Line
	10100 2000 9800 2000
Wire Wire Line
	9850 1700 10450 1700
Wire Wire Line
	10450 1700 10450 3450
Wire Wire Line
	10450 3450 7250 3450
Wire Wire Line
	7250 3450 7250 6250
Wire Wire Line
	7250 6250 7550 6250
Wire Wire Line
	9950 5800 9950 5700
Wire Wire Line
	10050 5800 9550 5800
Connection ~ 9950 5800
Wire Wire Line
	10400 5350 10400 5300
Wire Wire Line
	10400 5300 10600 5300
Connection ~ 10600 5300
Wire Wire Line
	9800 4750 9800 4600
Wire Wire Line
	10250 4400 9950 4400
Wire Wire Line
	9950 4400 9950 4750
Wire Wire Line
	9950 4750 9550 4750
Connection ~ 9800 4750
Wire Wire Line
	8650 6950 8650 6800
Wire Wire Line
	8650 6800 8600 6800
Wire Wire Line
	5200 5800 5200 5550
Wire Wire Line
	5500 6000 5650 6000
Wire Wire Line
	4550 5650 4250 5650
Wire Wire Line
	5200 6300 4450 6300
Connection ~ 5200 6300
Wire Wire Line
	4450 6300 4450 5850
Wire Wire Line
	4450 5850 4250 5850
Wire Wire Line
	7450 4500 7450 4400
Wire Wire Line
	7450 3750 7450 3900
Wire Wire Line
	10000 850  10000 1100
$Comp
L LED D2
U 1 1 53FE849B
P 10000 1300
F 0 "D2" H 10000 1400 50  0000 C CNN
F 1 "LED" H 10000 1200 50  0000 C CNN
	1    10000 1300
	0    -1   -1   0   
$EndComp
$Comp
L R R6
U 1 1 53FE849A
P 10250 850
F 0 "R6" V 10330 850 50  0000 C CNN
F 1 "1k" V 10250 850 50  0000 C CNN
	1    10250 850 
	0    -1   -1   0   
$EndComp
$Comp
L GND #PWR?
U 1 1 53FE8499
P 10600 700
F 0 "#PWR?" H 10600 700 30  0001 C CNN
F 1 "GND" H 10600 630 30  0001 C CNN
	1    10600 700 
	-1   0    0    1   
$EndComp
$Comp
L GND #PWR?
U 1 1 53FE843E
P 7450 3750
F 0 "#PWR?" H 7450 3750 30  0001 C CNN
F 1 "GND" H 7450 3680 30  0001 C CNN
	1    7450 3750
	-1   0    0    1   
$EndComp
$Comp
L R R5
U 1 1 53FE8419
P 7450 4150
F 0 "R5" V 7530 4150 50  0000 C CNN
F 1 "1k" V 7450 4150 50  0000 C CNN
	1    7450 4150
	1    0    0    -1  
$EndComp
$Comp
L LED D1
U 1 1 53FE840A
P 7450 4700
F 0 "D1" H 7450 4800 50  0000 C CNN
F 1 "LED" H 7450 4600 50  0000 C CNN
	1    7450 4700
	0    -1   -1   0   
$EndComp
Text Notes 4000 5500 0    60   ~ 0
Black
Text Notes 4000 6050 0    60   ~ 0
While\n
NoConn ~ 4250 5750
$Comp
L CONN_3 K2
U 1 1 53FE8095
P 3900 5750
F 0 "K2" V 3850 5750 50  0000 C CNN
F 1 "Victor888" V 3950 5750 40  0000 C CNN
	1    3900 5750
	-1   0    0    1   
$EndComp
$Comp
L C C5
U 1 1 53FE8084
P 4750 5650
F 0 "C5" H 4800 5750 50  0000 L CNN
F 1 "100µf" H 4800 5550 50  0000 L CNN
	1    4750 5650
	0    -1   -1   0   
$EndComp
$Comp
L VCC #PWR?
U 1 1 53FE7F49
P 5200 4900
F 0 "#PWR?" H 5200 5000 30  0001 C CNN
F 1 "VCC" H 5200 5000 30  0000 C CNN
	1    5200 4900
	1    0    0    -1  
$EndComp
$Comp
L GND #PWR?
U 1 1 53FE7F44
P 5200 6400
F 0 "#PWR?" H 5200 6400 30  0001 C CNN
F 1 "GND" H 5200 6330 30  0001 C CNN
	1    5200 6400
	1    0    0    -1  
$EndComp
$Comp
L R R3
U 1 1 53FE7F2E
P 5200 5300
F 0 "R3" V 5280 5300 50  0000 C CNN
F 1 "1k" V 5200 5300 50  0000 C CNN
	1    5200 5300
	1    0    0    -1  
$EndComp
$Comp
L R R4
U 1 1 53FE7F29
P 5900 6000
F 0 "R4" V 5980 6000 50  0000 C CNN
F 1 "10k" V 5900 6000 50  0000 C CNN
	1    5900 6000
	0    -1   -1   0   
$EndComp
$Comp
L 2N2222 Q1
U 1 1 53FE7F0D
P 5300 6000
F 0 "Q1" H 5500 5900 50  0000 C CNN
F 1 "2N2222" H 5550 6150 50  0000 C CNN
F 2 "TO-92" H 5490 6000 30  0001 C CNN
	1    5300 6000
	-1   0    0    -1  
$EndComp
$Comp
L GND #PWR?
U 1 1 53FE7EF7
P 8650 6950
F 0 "#PWR?" H 8650 6950 30  0001 C CNN
F 1 "GND" H 8650 6880 30  0001 C CNN
	1    8650 6950
	1    0    0    -1  
$EndComp
$Comp
L VCC #PWR?
U 1 1 53FE7EC8
P 8550 4000
F 0 "#PWR?" H 8550 4100 30  0001 C CNN
F 1 "VCC" H 8550 4100 30  0000 C CNN
	1    8550 4000
	1    0    0    -1  
$EndComp
$Comp
L CONN_1 P2
U 1 1 53FE7E9A
P 10400 4400
F 0 "P2" H 10480 4400 40  0000 L CNN
F 1 "MasterClear" H 10400 4455 30  0001 C CNN
	1    10400 4400
	1    0    0    -1  
$EndComp
$Comp
L VCC #PWR?
U 1 1 53FE7E75
P 9800 3950
F 0 "#PWR?" H 9800 4050 30  0001 C CNN
F 1 "VCC" H 9800 4050 30  0000 C CNN
	1    9800 3950
	1    0    0    -1  
$EndComp
$Comp
L R R2
U 1 1 53FE7E65
P 9800 4350
F 0 "R2" V 9880 4350 50  0000 C CNN
F 1 "10k" V 9800 4350 50  0000 C CNN
	1    9800 4350
	1    0    0    -1  
$EndComp
$Comp
L GND #PWR?
U 1 1 53FE7DF8
P 10400 5350
F 0 "#PWR?" H 10400 5350 30  0001 C CNN
F 1 "GND" H 10400 5280 30  0001 C CNN
	1    10400 5350
	1    0    0    -1  
$EndComp
$Comp
L C C4
U 1 1 53FE7D92
P 10250 5800
F 0 "C4" H 10300 5900 50  0000 L CNN
F 1 "15pf" H 10300 5700 50  0000 L CNN
	1    10250 5800
	0    -1   -1   0   
$EndComp
$Comp
L C C3
U 1 1 53FE7D89
P 10300 5000
F 0 "C3" H 10350 5100 50  0000 L CNN
F 1 "15pf" H 10350 4900 50  0000 L CNN
	1    10300 5000
	0    -1   -1   0   
$EndComp
$Comp
L CRYSTAL X2
U 1 1 53FE7D44
P 9950 5400
F 0 "X2" H 9950 5550 60  0000 C CNN
F 1 "4Mhz" H 9950 5250 60  0000 C CNN
	1    9950 5400
	0    -1   -1   0   
$EndComp
$Comp
L CONN_2 P2
U 1 1 53FE7A35
P 6050 2550
F 0 "P2" V 6000 2550 40  0000 C CNN
F 1 "MAX232" V 6100 2550 40  0000 C CNN
	1    6050 2550
	1    0    0    -1  
$EndComp
$Comp
L CONN_1 P1
U 1 1 53FE79DE
P 7000 2450
F 0 "P1" H 7080 2450 40  0000 L CNN
F 1 "MasterClear" H 7000 2505 30  0001 C CNN
	1    7000 2450
	-1   0    0    1   
$EndComp
$Comp
L VCC #PWR?
U 1 1 53FE79BC
P 6400 2150
F 0 "#PWR?" H 6400 2250 30  0001 C CNN
F 1 "VCC" H 6400 2250 30  0000 C CNN
	1    6400 2150
	1    0    0    -1  
$EndComp
$Comp
L R R1
U 1 1 53FE799F
P 6800 2250
F 0 "R1" V 6880 2250 50  0000 C CNN
F 1 "10k" V 6800 2250 50  0000 C CNN
	1    6800 2250
	0    1    1    0   
$EndComp
$Comp
L GND #PWR?
U 1 1 53FE7915
P 6200 1100
F 0 "#PWR?" H 6200 1100 30  0001 C CNN
F 1 "GND" H 6200 1030 30  0001 C CNN
	1    6200 1100
	0    1    1    0   
$EndComp
$Comp
L C C1
U 1 1 53FE78F3
P 6650 1900
F 0 "C1" H 6700 2000 50  0000 L CNN
F 1 "15pf" H 6700 1800 50  0000 L CNN
	1    6650 1900
	0    -1   -1   0   
$EndComp
$Comp
L C C1
U 1 1 53FE78E8
P 6600 1100
F 0 "C1" H 6650 1200 50  0000 L CNN
F 1 "15pf" H 6650 1000 50  0000 L CNN
	1    6600 1100
	0    1    1    0   
$EndComp
$Comp
L CRYSTAL X1
U 1 1 53FE7897
P 6900 1500
F 0 "X1" H 6900 1650 60  0000 C CNN
F 1 "4Mhz" H 6900 1350 60  0000 C CNN
	1    6900 1500
	0    -1   -1   0   
$EndComp
$Comp
L VCC #PWR?
U 1 1 53FE77FB
P 7300 1150
F 0 "#PWR?" H 7300 1250 30  0001 C CNN
F 1 "VCC" H 7300 1250 30  0000 C CNN
	1    7300 1150
	1    0    0    -1  
$EndComp
$Comp
L GND #PWR?
U 1 1 53FE77C9
P 7350 2850
F 0 "#PWR?" H 7350 2850 30  0001 C CNN
F 1 "GND" H 7350 2780 30  0001 C CNN
	1    7350 2850
	1    0    0    -1  
$EndComp
$Comp
L VCC #PWR?
U 1 1 53FE7782
P 950 1750
F 0 "#PWR?" H 950 1850 30  0001 C CNN
F 1 "VCC" H 950 1850 30  0000 C CNN
	1    950  1750
	1    0    0    -1  
$EndComp
$Comp
L GND #PWR?
U 1 1 53FE7747
P 1550 4600
F 0 "#PWR?" H 1550 4600 30  0001 C CNN
F 1 "GND" H 1550 4530 30  0001 C CNN
	1    1550 4600
	1    0    0    -1  
$EndComp
$Comp
L PIC16F628A U2
U 1 1 53FE7172
P 8500 2050
F 0 "U2" H 8800 2850 60  0000 C CNN
F 1 "PIC16F628A" H 8950 1250 60  0000 C CNN
	1    8500 2050
	1    0    0    -1  
$EndComp
$Comp
L PIC16F876 U1
U 1 1 53FE715D
P 8500 5650
F 0 "U1" H 8700 4750 60  0000 C CNN
F 1 "PIC16F876A" H 8850 6850 60  0000 C CNN
	1    8500 5650
	1    0    0    -1  
$EndComp
$Comp
L ARDUINO_MEGA U1
U 1 1 53FE7112
P 3250 2350
F 0 "U1" H 9100 2100 60  0000 C CNN
F 1 "ARDUINO_MEGA" H 3250 2450 60  0000 C CNN
	1    3250 2350
	1    0    0    -1  
$EndComp
$EndSCHEMATC
